[
    {
      "canonicalForm": "Bharathi Pancharatnam",
      "list": [
        
      ]
    },
    {
      "canonicalForm": "R. Suyraprakash",
      "list": [
        
      ]
    },
    {
      "canonicalForm": "Priya Sisters",
      "list": [
        
      ]
    },
    {
      "canonicalForm": "Shertalai K. N. Renganatha Sharma",
      "list": [
        
      ]
    },
    {
      "canonicalForm": "Saindhavi",
      "list": [
        
      ]
    },
    {
      "canonicalForm": "Jayakrishnan",
      "list": [
        
      ]
    },
    {
      "canonicalForm": "Pantula Rama",
      "list": [
        
      ]
    },
    {
      "canonicalForm": "S. Sowmya",
      "list": [
        
      ]
    },
    {
      "canonicalForm": "Dushyanth Sridhar",
      "list": [
        
      ]
    },
    {
      "canonicalForm": "Lavanya Sundararaman",
      "list": [
        
      ]
    },
    {
      "canonicalForm": "Rithvik Raja",
      "list": [
        
      ]
    },
    {
      "canonicalForm": "V. Deepika",
      "list": [
        
      ]
    },
    {
      "canonicalForm": "Nithyashree Mahadevan",
      "list": [
        
      ]
    },
    {
      "canonicalForm": "Tiruvarur Bhakthavatsalam",
      "list": [
        
      ]
    },
    {
      "canonicalForm": "Amritha Sankaranarayanan",
      "list": [
        
      ]
    },
    {
      "canonicalForm": "P. Unnikrishnan",
      "list": [
        
      ]
    },
    {
      "canonicalForm": "Gayathri Girish",
      "list": [
        
      ]
    },
    {
      "canonicalForm": "Ashwath Narayanan",
      "list": [
        
      ]
    },
    {
      "canonicalForm": "Krishnakumar & Binny Krishnakumar",
      "list": [
        
      ]
    },
    {
      "canonicalForm": "S. N. Ramanan",
      "list": [
        
      ]
    },
    {
      "canonicalForm": "S. Mahathi",
      "list": [
        
      ]
    },
    {
      "canonicalForm": "S. Karthik",
      "list": [
        
      ]
    },
    {
      "canonicalForm": "Aishwarya Shankar",
      "list": [
        
      ]
    },
    {
      "canonicalForm": "Shreya Devnath",
      "list": [
        
      ]
    },
    {
      "canonicalForm": "Bakthaswara Bhajan Mandali",
      "list": [
        
      ]
    },
    {
      "canonicalForm": "Mambalam Sisters",
      "list": [
        
      ]
    },
    {
      "canonicalForm": "R. Prasanna",
      "list": [
        
      ]
    },
    {
      "canonicalForm": "Easwaran Namboodri",
      "list": [
        
      ]
    },
    {
      "canonicalForm": "P. V. Parameswaran",
      "list": [
        
      ]
    },
    {
      "canonicalForm": "Palakkad Sajiv",
      "list": [
        
      ]
    },
    {
      "canonicalForm": "Arunaprabha Ranganathan",
      "list": [
        
      ]
    },
    {
      "canonicalForm": "Vijayalakshmi Subramanyam",
      "list": [
        
      ]
    },
    {
      "canonicalForm": "M. Lalitha & M. Nandini",
      "list": [
        
      ]
    },
    {
      "canonicalForm": "T. V. Sankaranarayanan",
      "list": [
        
      ]
    },
    {
      "canonicalForm": "O. S. Arun",
      "list": [
        
      ]
    },
    {
      "canonicalForm": "Geetha Rajashekar",
      "list": [
        
      ]
    },
    {
      "canonicalForm": "Subha Ganesan",
      "list": [
        
      ]
    },
    {
      "canonicalForm": "Rajhesh Vaidhya",
      "list": [
        
      ]
    },
    {
      "canonicalForm": "Geetha Raja",
      "list": [
        
      ]
    },
    {
      "canonicalForm": "Vidya Kalyanaraman",
      "list": [
        
      ]
    },
    {
      "canonicalForm": "T. V. Ramprasadh",
      "list": [
        
      ]
    },
    {
      "canonicalForm": "Saketharaman",
      "list": [
        
      ]
    },
    {
      "canonicalForm": "M.Chandrasekharan & G. Bharathi",
      "list": [
        
      ]
    },
    {
      "canonicalForm": "Sanjay Subrahmanyan",
      "list": [
        
      ]
    },
    {
      "canonicalForm": "Ranjani Gayatri",
      "list": [
        
      ]
    },
    {
      "canonicalForm": "Pravin Pundir",
      "list": [
        
      ]
    },
    {
      "canonicalForm": "K. Krishnakumar",
      "list": [
        
      ]
    },
    {
      "canonicalForm": "Mysore Sangeetha Dileep",
      "list": [
        
      ]
    },
    {
      "canonicalForm": "Padma Subrahmanyam",
      "list": [
        
      ]
    },
    {
      "canonicalForm": "Kunnakudy M Balamuralikrishna",
      "list": [
        
      ]
    },
    {
      "canonicalForm": "Sikkil Gurucharan",
      "list": [
        
      ]
    },
    {
      "canonicalForm": "Veena Venkatramani",
      "list": [
        
      ]
    },
    {
      "canonicalForm": "Gayathri Venkataraghavan",
      "list": [
        
      ]
    },
    {
      "canonicalForm": "Nithyasree Mahadevan",
      "list": [
        
      ]
    },
    {
      "canonicalForm": "Sid Sriram",
      "list": [
        
      ]
    },
    {
      "canonicalForm": "Urmila Sathyanarayanan",
      "list": [
        
      ]
    },
    {
      "canonicalForm": "Arun Kousik",
      "list": [
        
      ]
    },
    {
      "canonicalForm": "Mahathi",
      "list": [
        
      ]
    },
    {
      "canonicalForm": "Aravind Sridhar",
      "list": [
        
      ]
    },
    {
      "canonicalForm": "Lakshmi Viswanathan",
      "list": [
        
      ]
    },
    {
      "canonicalForm": "Ramakrishnan Murthy",
      "list": [
        
      ]
    },
    {
      "canonicalForm": "M A Krishnaswamy",
      "list": [
        
      ]
    },
    {
      "canonicalForm": "R. K. Shriramkumar",
      "list": [
        
      ]
    },
    {
      "canonicalForm": "Sandeep Narayan",
      "list": [
        
      ]
    },
    {
      "canonicalForm": "K. J. Yesudas",
      "list": [
        
      ]
    },
    {
      "canonicalForm": "Anil Srinivasan",
      "list": [
        
      ]
    },
    {
      "canonicalForm": "Nandini Ramani & Sushma Ranganathan",
      "list": [
        
      ]
    },
    {
      "canonicalForm": "Bhooma Kasthuri",
      "list": [
        
      ]
    },
    {
      "canonicalForm": "Amruthavarshini",
      "list": [
        
      ]
    },
    {
      "canonicalForm": "Srekala Bharat",
      "list": [
        
      ]
    },
    {
      "canonicalForm": "Tiruvallur J.P Siranjeevi",
      "list": [
        
      ]
    },
    {
      "canonicalForm": "Namagiripettai Gokula Krishnan",
      "list": [
        
      ]
    },
    {
      "canonicalForm": "Mudikondan Ramesh",
      "list": [
        
      ]
    },
    {
      "canonicalForm": "Charumathy Ramachandra",
      "list": [
        
      ]
    },
    {
      "canonicalForm": "Vasudha Ravi",
      "list": [
        
      ]
    },
    {
      "canonicalForm": "N. Ravikiran",
      "list": [
        
      ]
    },
    {
      "canonicalForm": "Srinidhi Chidambaram",
      "list": [
        
      ]
    },
    {
      "canonicalForm": "Prarthana Sai Narasimhan",
      "list": [
        
      ]
    },
    {
      "canonicalForm": "Prithvi Harish",
      "list": [
        
      ]
    },
    {
      "canonicalForm": "Vishaka Hari",
      "list": [
        
      ]
    },
    {
      "canonicalForm": "Bharat Sundar",
      "list": [
        
      ]
    },
    {
      "canonicalForm": "Prasanna Venkatraman",
      "list": [
        
      ]
    },
    {
      "canonicalForm": "Carnatica Brothers",
      "list": [
        
      ]
    },
    {
      "canonicalForm": "Trichur Brothers",
      "list": [
        
      ]
    },
    {
      "canonicalForm": "Vijayathe Gopala Choodamani",
      "list": [
        
      ]
    },
    {
      "canonicalForm": "Madan Mohan Upadhyay",
      "list": [
        
      ]
    },
    {
      "canonicalForm": "Pt. Dinkar Panshikar",
      "list": [
        
      ]
    },
    {
      "canonicalForm": "Sudha Raghuraman",
      "list": [
        
      ]
    },
    {
      "canonicalForm": "Subra Guha",
      "list": [
        
      ]
    },
    {
      "canonicalForm": "M. Muniratnam",
      "list": [
        
      ]
    },
    {
      "canonicalForm": "Patri Satish Kumar",
      "list": [
        
      ]
    },
    {
      "canonicalForm": "P. Ganesh",
      "list": [
        
      ]
    },
    {
      "canonicalForm": "Subhash Vanage",
      "list": [
        
      ]
    },
    {
      "canonicalForm": "Jaydeep Ghosh",
      "list": [
        
      ]
    },
    {
      "canonicalForm": "Pt. Ulhas Kashalkar",
      "list": [
        
      ]
    },
    {
      "canonicalForm": "Bhimana Jadhav",
      "list": [
        
      ]
    },
    {
      "canonicalForm": "Pt. Damodar Hota",
      "list": [
        
      ]
    },
    {
      "canonicalForm": "Sudha Ragunathan",
      "list": [
        
      ]
    },
    {
      "canonicalForm": "Dr. Mrityunjay H. Agadi",
      "list": [
        
      ]
    },
    {
      "canonicalForm": "Mukesh Sharma",
      "list": [
        
      ]
    },
    {
      "canonicalForm": "Ustad Mustafa Raza",
      "list": [
        
      ]
    },
    {
      "canonicalForm": " Ustad Abdul Rashid Hafiz ",
      "list": [
        
      ]
    },
    {
      "canonicalForm": "Pt. Nirmalya Dey",
      "list": [
        
      ]
    },
    {
      "canonicalForm": "Nandita Chakravarty",
      "list": [
        
      ]
    },
    {
      "canonicalForm": "Nishad Bakre",
      "list": [
        
      ]
    },
    {
      "canonicalForm": "Arun Morone",
      "list": [
        
      ]
    },
    {
      "canonicalForm": "Pt. Santanu Bhattacharya",
      "list": [
        
      ]
    },
    {
      "canonicalForm": "D. Srinivas",
      "list": [
        
      ]
    },
    {
      "canonicalForm": "Kuhu Ganguli Mukharjee",
      "list": [
        
      ]
    },
    {
      "canonicalForm": "Anuradha Kuber",
      "list": [
        
      ]
    },
    {
      "canonicalForm": "K. N. Renganatha Sarma",
      "list": [
        
      ]
    },
    {
      "canonicalForm": "Pt. Soumitra Lahiri",
      "list": [
        
      ]
    },
    {
      "canonicalForm": "M.S. Sheela",
      "list": [
        
      ]
    },
    {
      "canonicalForm": "Shadaab Sabri",
      "list": [
        
      ]
    },
    {
      "canonicalForm": "Pt. Sandipan Samajpati",
      "list": [
        
      ]
    },
    {
      "canonicalForm": "Adayar S. Jayaraman",
      "list": [
        
      ]
    },
    {
      "canonicalForm": "J. A. Jayanth",
      "list": [
        
      ]
    },
    {
      "canonicalForm": "Mysore S. Rajalakshmi",
      "list": [
        
      ]
    },
    {
      "canonicalForm": "S.R. Mahadeva Sharma & S.R. Rajashree",
      "list": [
        
      ]
    },
    {
      "canonicalForm": "P. Sudha Rani",
      "list": [
        
      ]
    },
    {
      "canonicalForm": "Rajender Prasad",
      "list": [
        
      ]
    },
    {
      "canonicalForm": "Sita Ram Singh",
      "list": [
        
      ]
    },
    {
      "canonicalForm": "Ashwin Srinivasan",
      "list": [
        
      ]
    },
    {
      "canonicalForm": "Hyderabad Brothers",
      "list": [
        
      ]
    },
    {
      "canonicalForm": "Subhendra Rao",
      "list": [
        
      ]
    },
    {
      "canonicalForm": "Pt. Manojit Mallick",
      "list": [
        
      ]
    },
    {
      "canonicalForm": "Ustad Kamaal Sabri",
      "list": [
        
      ]
    },
    {
      "canonicalForm": "Debashish Chakraborty",
      "list": [
        
      ]
    },
    {
      "canonicalForm": "Anuradha Pal",
      "list": [
        
      ]
    },
    {
      "canonicalForm": "Abdul Sallam Naushad",
      "list": [
        
      ]
    },
    {
      "canonicalForm": "Pt. Bhajan Sopori",
      "list": [
        
      ]
    },
    {
      "canonicalForm": "V.L. Tulasi Vishwanath",
      "list": [
        
      ]
    },
    {
      "canonicalForm": "Kudamaloor Janardanan",
      "list": [
        
      ]
    },
    {
      "canonicalForm": "Vani satish",
      "list": [
        
      ]
    },
    {
      "canonicalForm": "Gowri Shankar",
      "list": [
        
      ]
    },
    {
      "canonicalForm": "Dr. Amruta Shankaranarayanan",
      "list": [
        
      ]
    },
    {
      "canonicalForm": "Charanya Mani Aditya",
      "list": [
        
      ]
    },
    {
      "canonicalForm": "Rishabh Ranganathan",
      "list": [
        
      ]
    },
    {
      "canonicalForm": "Kovai Padhu Presents Unnai Arindaal",
      "list": [
        
      ]
    },
    {
      "canonicalForm": "Vanaja Sundararajan & Party",
      "list": [
        
      ]
    },
    {
      "canonicalForm": "Neyveli Shanthanagopalan",
      "list": [
        
      ]
    },
    {
      "canonicalForm": "T Kalaimagan",
      "list": [
        
      ]
    },
    {
      "canonicalForm": "Udayalur Kalayanaraman",
      "list": [
        
      ]
    },
    {
      "canonicalForm": "Nirajana Srinivas",
      "list": [
        
      ]
    },
    {
      "canonicalForm": "Srekala Bharath",
      "list": [
        
      ]
    },
    {
      "canonicalForm": "K. J. Jesudas",
      "list": [
        
      ]
    },
    {
      "canonicalForm": "Namagiripettai Gokulakrishnan",
      "list": [
        
      ]
    },
    {
      "canonicalForm": "A K C Natarajan",
      "list": [
        
      ]
    },
    {
      "canonicalForm": "H Vishwas",
      "list": [
        
      ]
    },
    {
      "canonicalForm": "G. Pranathi",
      "list": [
        
      ]
    },
    {
      "canonicalForm": "Lalgudi G J R Krishnan & Sriram Parasuram",
      "list": [
        
      ]
    },
    {
      "canonicalForm": "O S Arun",
      "list": [
        
      ]
    },
    {
      "canonicalForm": "Uma Subramaniyam",
      "list": [
        
      ]
    },
    {
      "canonicalForm": "Vignesh",
      "list": [
        
      ]
    },
    {
      "canonicalForm": "Kunnakudi Balamuralikrishna",
      "list": [
        
      ]
    },
    {
      "canonicalForm": "Soundarya Chandrasekar",
      "list": [
        
      ]
    },
    {
      "canonicalForm": "Devaprayaga",
      "list": [
        
      ]
    },
    {
      "canonicalForm": "Arun Koushik",
      "list": [
        
      ]
    },
    {
      "canonicalForm": "K.N. Shashikiran & P. Ganesh",
      "list": [
        
      ]
    },
    {
      "canonicalForm": "Sandeep Narayanan",
      "list": [
        
      ]
    },
    {
      "canonicalForm": "Students of Saroja Vaidhayanathan",
      "list": [
        
      ]
    },
    {
      "canonicalForm": "Mala Ramadurai",
      "list": [
        
      ]
    },
    {
      "canonicalForm": "Booma Kasturi",
      "list": [
        
      ]
    },
    {
      "canonicalForm": "Mapillai Ganesh",
      "list": [
        
      ]
    },
    {
      "canonicalForm": "Nithayasri Mahadevan",
      "list": [
        
      ]
    },
    {
      "canonicalForm": "S. Ve. Shekhar",
      "list": [
        
      ]
    },
    {
      "canonicalForm": "K.S.N Sunder",
      "list": [
        
      ]
    },
    {
      "canonicalForm": "Maharajapuram Ganesh Viswanathan",
      "list": [
        
      ]
    },
    {
      "canonicalForm": "D Srinivasan",
      "list": [
        
      ]
    },
    {
      "canonicalForm": "Payyurar in 'Sruthi Laya'",
      "list": [
        
      ]
    },
    {
      "canonicalForm": "K Subhiksha",
      "list": [
        
      ]
    },
    {
      "canonicalForm": "S Harshitha",
      "list": [
        
      ]
    },
    {
      "canonicalForm": "Sreeusha & Sireesha",
      "list": [
        
      ]
    },
    {
      "canonicalForm": "Jayasri Jayaramakrishnan",
      "list": [
        
      ]
    },
    {
      "canonicalForm": "Rajani Hariharan",
      "list": [
        
      ]
    },
    {
      "canonicalForm": "U P Raju & Nagamani",
      "list": [
        
      ]
    },
    {
      "canonicalForm": "Ananthu",
      "list": [
        
      ]
    },
    {
      "canonicalForm": "Raghuveer Rangan",
      "list": [
        
      ]
    },
    {
      "canonicalForm": "Chitra Moorthy",
      "list": [
        
      ]
    },
    {
      "canonicalForm": "Bharativasan",
      "list": [
        
      ]
    },
    {
      "canonicalForm": "S Aishwarya & S. Saundarya",
      "list": [
        
      ]
    },
    {
      "canonicalForm": "Mahanadhi Shobana Vignesh",
      "list": [
        
      ]
    },
    {
      "canonicalForm": "Sia lyer",
      "list": [
        
      ]
    },
    {
      "canonicalForm": "Chaganti Ramya Kiranmayi",
      "list": [
        
      ]
    },
    {
      "canonicalForm": "Sheela Unnikrishnan",
      "list": [
        
      ]
    },
    {
      "canonicalForm": "Rhea Rajesh",
      "list": [
        
      ]
    },
    {
      "canonicalForm": "Maharajapuram S Ramachandran",
      "list": [
        
      ]
    },
    {
      "canonicalForm": "Siddharth Vijay",
      "list": [
        
      ]
    },
   
    {
      "canonicalForm": "Akkarai Sisters Subhalakshmi & Sornalatha",
      "list": [
        
      ]
    },
    {
      "canonicalForm": "M V Anantha Padmanabha Chariar",
      "list": [
        
      ]
    },
    {
      "canonicalForm": "Divya Kasturi",
      "list": [
        
      ]
    },
    {
      "canonicalForm": "Priya Subramanian",
      "list": [
        
      ]
    },
    {
      "canonicalForm": "Srimushnam V Raja Rao",
      "list": [
        
      ]
    },
    {
      "canonicalForm": "Sriram Parathasarathy",
      "list": [
        
      ]
    },
    {
      "canonicalForm": "O. S. Thiagarajan",
      "list": [
        
      ]
    },
    {
      "canonicalForm": "Kovai Kamala",
      "list": [
        
      ]
    },
    {
      "canonicalForm": "Pushpa Anand",
      "list": [
        
      ]
    },
    {
      "canonicalForm": "Ragalaya Students",
      "list": [
        
      ]
    },
    {
      "canonicalForm": "Riha Giri",
      "list": [
        
      ]
    },
    {
      "canonicalForm": "A Deepthi & R Shalini",
      "list": [
        
      ]
    },
    {
      "canonicalForm": "Sneha Kasturi Rangan",
      "list": [
        
      ]
    },
    {
      "canonicalForm": "V Rukmini",
      "list": [
        
      ]
    },
    {
      "canonicalForm": "Manasa Suresh",
      "list": [
        
      ]
    },
    {
      "canonicalForm": "Crazy Mohan",
      "list": [
        
      ]
    },
    {
      "canonicalForm": "Disciples of Swaminathan",
      "list": [
        
      ]
    },
    {
      "canonicalForm": "Anjana Thirumalai",
      "list": [
        
      ]
    },
    {
      "canonicalForm": "Abhilash",
      "list": [
        
      ]
    },
    {
      "canonicalForm": "Sankari Krishnan",
      "list": [
        
      ]
    },
    {
      "canonicalForm": "Sriranjani Santhanagopalan",
      "list": [
        
      ]
    },
    {
      "canonicalForm": "H Ramakrishna",
      "list": [
        
      ]
    },
    {
      "canonicalForm": "Muthukumar",
      "list": [
        
      ]
    },
    {
      "canonicalForm": "Ranjani gayathri",
      "list": [
        
      ]
    },
    {
      "canonicalForm": "Ashwin Srikant",
      "list": [
        
      ]
    },
    {
      "canonicalForm": "Kathadi Ramamoorthy",
      "list": [
        
      ]
    },
    {
      "canonicalForm": "Srividya Vijayanand",
      "list": [
        
      ]
    },
    {
      "canonicalForm": "Tejashri Kannan",
      "list": [
        
      ]
    },
    {
      "canonicalForm": "Veena Vedhavalli",
      "list": [
        
      ]
    },
    {
      "canonicalForm": "Akshay Padmanabhan",
      "list": [
        
      ]
    },
    {
      "canonicalForm": "Veeyesvee",
      "list": [
        
      ]
    },
    {
      "canonicalForm": "Amirthavauhini Prema Prabhakaran",
      "list": [
        
      ]
    },
    {
      "canonicalForm": "S Dharini",
      "list": [
        
      ]
    },
    {
      "canonicalForm": "Madhumitha & Vaishali",
      "list": [
        
      ]
    },
    {
      "canonicalForm": "Y. G. Mahendra",
      "list": [
        
      ]
    },
    {
      "canonicalForm": "Swetha Sriram",
      "list": [
        
      ]
    },
    {
      "canonicalForm": "Disciples of M Lakshmi Priya Raja",
      "list": [
        
      ]
    },
    {
      "canonicalForm": "S Shivaprasad",
      "list": [
        
      ]
    },
    {
      "canonicalForm": "Melattur Bhagavatha Mela",
      "list": [
        
      ]
    },
    {
      "canonicalForm": "Komaravolu Siva Prasad",
      "list": [
        
      ]
    },
    {
      "canonicalForm": "Students of Nrithyakshetra",
      "list": [
        
      ]
    },
    {
      "canonicalForm": "P B Ksheeraja",
      "list": [
        
      ]
    },
    {
      "canonicalForm": "Pushpa Kannan",
      "list": [
        
      ]
    },
    {
      "canonicalForm": "Sri Sathguru",
      "list": [
        
      ]
    },
    {
      "canonicalForm": "Ramakrishnan Moorthy",
      "list": [
        
      ]
    },
    {
      "canonicalForm": "Ramanathan",
      "list": [
        
      ]
    },
    {
      "canonicalForm": "Veena B Kannan",
      "list": [
        
      ]
    },
    {
      "canonicalForm": "Delhi Sunderrajan",
      "list": [
        
      ]
    },
    {
      "canonicalForm": "Mambalam M K S Siva",
      "list": [
        
      ]
    },
    {
      "canonicalForm": "Deepa & Divya",
      "list": [
        
      ]
    },
    {
      "canonicalForm": "Kalyanapuram Aravind",
      "list": [
        
      ]
    },
    {
      "canonicalForm": "Jayanthi Kumaresh",
      "list": [
        
      ]
    },
    {
      "canonicalForm": "M. Chandrasekaran & G. Bharathi",
      "list": [
        
      ]
    },
    {
      "canonicalForm": "Akkarai Sisters",
      "list": [
        
      ]
    },
    {
      "canonicalForm": "Ananya Ashok",
      "list": [
        
      ]
    },
    {
      "canonicalForm": "V.V. Surya",
      "list": [
        
      ]
    },
    {
      "canonicalForm": "Arjun Sambasivan & Narayanan",
      "list": [
        
      ]
    },
    {
      "canonicalForm": "Bangalore Brothers",
      "list": [
        
      ]
    },
    {
      "canonicalForm": "Duddu Radhika",
      "list": [
        
      ]
    },
    {
      "canonicalForm": "Maharajapuram S. Ramachandran",
      "list": [
        
      ]
    },
    {
      "canonicalForm": "S. R. Mahadeva Sharma & S. R. Rajasree",
      "list": [
        
      ]
    },
    {
      "canonicalForm": "Vishaal Sapuram",
      "list": [
        
      ]
    },
    {
      "canonicalForm": "N. Ananthanarayanan",
      "list": [
        
      ]
    },
    {
      "canonicalForm": "A. K. C. Natarajan",
      "list": [
        
      ]
    },
    {
      "canonicalForm": "Kunnakkudi Balamuralikrishna",
      "list": [
        
      ]
    },
    {
      "canonicalForm": "Shertalai K. N. Ranganatha Sharma",
      "list": [
        
      ]
    },
    {
      "canonicalForm": "V. V. Subramaniam & V. V. S. Murari",
      "list": [
        
      ]
    },
    {
      "canonicalForm": "Nirmala Rajashekar",
      "list": [
        
      ]
    },
    {
      "canonicalForm": "Shruthi Raj",
      "list": [
        
      ]
    },
    {
      "canonicalForm": "Sai Sisters",
      "list": [
        
      ]
    },
    {
      "canonicalForm": "Ranjani Sivakumar",
      "list": [
        
      ]
    },
    {
      "canonicalForm": "Nagai Muralidharan & Nagai Sriram",
      "list": [
        
      ]
    },
    {
      "canonicalForm": "Vaibhav Ramu",
      "list": [
        
      ]
    },
    {
      "canonicalForm": "Y.G. Mahendra",
      "list": [
        
      ]
    },
   
    {
      "canonicalForm": "U. Rajesh",
      "list": [
        
      ]
    },
    {
      "canonicalForm": "Delhi Muthukumar",
      "list": [
        
      ]
    },
    {
      "canonicalForm": "Shreyaa Srinivasan",
      "list": [
        
      ]
    },
    {
      "canonicalForm": "Abhishek Raghuram",
      "list": [
        
      ]
    },
    {
      "canonicalForm": "Sriranjani Darba",
      "list": [
        
      ]
    },
    {
      "canonicalForm": "Purnima Sriraman",
      "list": [
        
      ]
    },
    {
      "canonicalForm": "Balakrishna",
      "list": [
        
      ]
    },
    {
      "canonicalForm": "Stage Creations Kathadi Ramamurthy",
      "list": [
        
      ]
    },
    {
      "canonicalForm": "Subhashree Thanikachalam",
      "list": [
        
      ]
    },
    {
      "canonicalForm": "Malladi Brothers Sreeramprsad & Ravikumar",
      "list": [
        
      ]
    },
    {
      "canonicalForm": "Mysoire Brothers M. Nagaraj & Dr. M. Manjunath",
      "list": [
        
      ]
    },
    {
      "canonicalForm": "Hrishikesh Balaji",
      "list": [
        
      ]
    },
    {
      "canonicalForm": "Cleveland Thyagaraja Festival",
      "list": [
        
      ]
    },
    {
      "canonicalForm": "Pranav Kikkeri",
      "list": [
        
      ]
    },
    {
      "canonicalForm": "Sharaddha Ganesh",
      "list": [
        
      ]
    },
    {
      "canonicalForm": "S. Saketharaman",
      "list": [
        
      ]
    },
    {
      "canonicalForm": "N. Vijay Siva",
      "list": [
        
      ]
    },
    {
      "canonicalForm": "Jayashri Jayaramakrishnan",
      "list": [
        
      ]
    },
    {
      "canonicalForm": "Shruthi Ramesh",
      "list": [
        
      ]
    },
    {
      "canonicalForm": "Shobana",
      "list": [
        
      ]
    },
    {
      "canonicalForm": "P. Muthukumaran",
      "list": [
        
      ]
    },
    {
      "canonicalForm": "Madhuvanthi and Sureshwar",
      "list": [
        
      ]
    },
    {
      "canonicalForm": "Ravi Sudarshan",
      "list": [
        
      ]
    },
    {
      "canonicalForm": "H. Rathna Prabha",
      "list": [
        
      ]
    },
    {
      "canonicalForm": "Nayana Dutt",
      "list": [
        
      ]
    },
    {
      "canonicalForm": "Sakthi Ravidharan",
      "list": [
        
      ]
    },
    {
      "canonicalForm": "Sarada Karthik",
      "list": [
        
      ]
    },
    {
      "canonicalForm": "Sriram Parasuram & Akkarai Subhalakshmi",
      "list": [
        
      ]
    },
    {
      "canonicalForm": "Mayuri Vasan",
      "list": [
        
      ]
    },
    {
      "canonicalForm": "Kunnakudi M. Balamuralikrishna",
      "list": [
        
      ]
    },
    {
      "canonicalForm": "Saashwathi Prabhu",
      "list": [
        
      ]
    },
    {
      "canonicalForm": "Maya Malavi",
      "list": [
        
      ]
    },
    {
      "canonicalForm": "Prithi Narasimhan",
      "list": [
        
      ]
    },
    {
      "canonicalForm": "Bhargavi Balasubramanian",
      "list": [
        
      ]
    },
    {
      "canonicalForm": "V. V. Subramaniam",
      "list": [
        
      ]
    },
    {
      "canonicalForm": "R. Suryaprakash",
      "list": [
        
      ]
    },
    {
      "canonicalForm": "V. K. Manimaran",
      "list": [
        
      ]
    },
    
    {
      "canonicalForm": "Nandhini Rao",
      "list": [
        
      ]
    },
    {
      "canonicalForm": "Pavan Mani",
      "list": [
        
      ]
    },
    {
      "canonicalForm": "S. Shashank & Anil Srinivasan",
      "list": [
        
      ]
    },
    {
      "canonicalForm": "B. Vijayagopal",
      "list": [
        
      ]
    },
    {
      "canonicalForm": "Neyveli Santhanagopalan",
      "list": [
        
      ]
    },
    {
      "canonicalForm": "Udayalur Kalyanarama Bhagavathar",
      "list": [
        
      ]
    },
    {
      "canonicalForm": "Archana & Aarathi",
      "list": [
        
      ]
    },
    {
      "canonicalForm": "Malladi Brothers",
      "list": [
        
      ]
    },
    {
      "canonicalForm": "R Surya Prakash",
      "list": [
        
      ]
    },
    {
      "canonicalForm": "V.V.Prasanna",
      "list": [
        
      ]
    },
    {
      "canonicalForm": "Guru Kaaraikudi Mani",
      "list": [
        
      ]
    },
    {
      "canonicalForm": "A. Kanyakumari",
      "list": [
        
      ]
    },
    {
      "canonicalForm": "Shobana Vignesh",
      "list": [
        
      ]
    },
    {
      "canonicalForm": "Sheik Mahaboob Subhani & Kalishbi Subhani",
      "list": [
        
      ]
    },
    {
      "canonicalForm": "Papanasam Ashok Ramani",
      "list": [
        
      ]
    },
    {
      "canonicalForm": "Kadri Gopalnath",
      "list": [
        
      ]
    },
    {
      "canonicalForm": "Nisha Rajagopal",
      "list": [
        
      ]
    },
   
    {
      "canonicalForm": "Lavanya Balasubramnaiam",
      "list": [
        
      ]
    },
    {
      "canonicalForm": "Padma Sugavanam",
      "list": [
        
      ]
    },
    {
      "canonicalForm": "J B Keerthana",
      "list": [
        
      ]
    },
    {
      "canonicalForm": "Zakhir Hussain",
      "list": [
        
      ]
    },
    {
      "canonicalForm": "Archana & Samanvi",
      "list": [
        
      ]
    },
    {
      "canonicalForm": "Krishna Ramarathinam",
      "list": [
        
      ]
    },
    {
      "canonicalForm": "Vidya Kanthan",
      "list": [
        
      ]
    },
    {
      "canonicalForm": "Bhargavi Balasubramnaiam",
      "list": [
        
      ]
    },
    {
      "canonicalForm": "Hydrabad Brothers",
      "list": [
        
      ]
    },
    {
      "canonicalForm": "Ramana Balachander",
      "list": [
        
      ]
    },
    {
      "canonicalForm": "Siddhartha",
      "list": [
        
      ]
    },
    {
      "canonicalForm": "Lalgudi GJR Krishnanan & Vijayalakshmi",
      "list": [
        
      ]
    },
    {
      "canonicalForm": "Nishanth Thyagarajan",
      "list": [
        
      ]
    },
    {
      "canonicalForm": "Ida Balakrishnanan Hindustani",
      "list": [
        
      ]
    },
    {
      "canonicalForm": "Sruthi Ramesh",
      "list": [
        
      ]
    },
    {
      "canonicalForm": "Bhargav Hariharan",
      "list": [
        
      ]
    },
    {
      "canonicalForm": "Aparna Thyagarajan",
      "list": [
        
      ]
    },
    {
      "canonicalForm": "T S Pattabhirama Pandit",
      "list": [
        
      ]
    },
    {
      "canonicalForm": "Dr. R Nagaswamy",
      "list": [
        
      ]
    },
    {
      "canonicalForm": "Ashwin Srikanth",
      "list": [
        
      ]
    },
    {
      "canonicalForm": "Nandini Rao Gujar",
      "list": [
        
      ]
    },
    {
      "canonicalForm": "Vishnudev Nambhoodri",
      "list": [
        
      ]
    },
    {
      "canonicalForm": "Srividya Ganesh",
      "list": [
        
      ]
    },
    {
      "canonicalForm": "Balasubrahmaniya Nagaraja Masti",
      "list": [
        
      ]
    },
    {
      "canonicalForm": "Rangan Brothers",
      "list": [
        
      ]
    },
    {
      "canonicalForm": "N Ananatha Narayanan",
      "list": [
        
      ]
    },
    {
      "canonicalForm": "Vasudha Ravi and Savita Sreeram",
      "list": [
        
      ]
    },
    {
      "canonicalForm": "Patri Satish Kumar and Poovalur Sreeji",
      "list": [
        
      ]
    },
    {
      "canonicalForm": "Reha Rajesh",
      "list": [
        
      ]
    },
    {
      "canonicalForm": "Sashanka and Prithi Narasimhan",
      "list": [
        
      ]
    },
    {
      "canonicalForm": "Hrishikesh and Priyanka",
      "list": [
        
      ]
    },
    {
      "canonicalForm": "Shruthi Shankar Kumar",
      "list": [
        
      ]
    },
    {
      "canonicalForm": "Ajitha Bala",
      "list": [
        
      ]
    },
    {
      "canonicalForm": "N Ravikiran",
      "list": [
        
      ]
    },
    {
      "canonicalForm": "Deepika & Nandika",
      "list": [
        
      ]
    },
    {
      "canonicalForm": "Sharnya Sriram",
      "list": [
        
      ]
    },
    {
      "canonicalForm": "Srinidhi Murali",
      "list": [
        
      ]
    },
    {
      "canonicalForm": "Prarthana Sainarasimhan",
      "list": [
        
      ]
    },
    {
      "canonicalForm": "R Prasanna",
      "list": [
        
      ]
    },
    {
      "canonicalForm": "Pranav Mani",
      "list": [
        
      ]
    },
    {
      "canonicalForm": "Susbhiksha Kothandaraman",
      "list": [
        
      ]
    },
    {
      "canonicalForm": "Shreya Srinivasan",
      "list": [
        
      ]
    },
    {
      "canonicalForm": "R. Sashaank",
      "list": [
        
      ]
    },
    {
      "canonicalForm": "Shreya Kolathaya",
      "list": [
        
      ]
    },
    {
      "canonicalForm": "Jayashri Vaidyanathan",
      "list": [
        
      ]
    },
    {
      "canonicalForm": "S. Gokula Krishnan",
      "list": [
        
      ]
    },
    {
      "canonicalForm": "Gayathri Krishnaveni Lakshmanan",
      "list": [
        
      ]
    },
    {
      "canonicalForm": "Aishwarya & Saundarya",
      "list": [
        
      ]
    },
    {
      "canonicalForm": "N. Harish",
      "list": [
        
      ]
    },
    {
      "canonicalForm": "Geetha Krishnamurthy",
      "list": [
        
      ]
    },
    {
      "canonicalForm": "Priya Krishnamurthy",
      "list": [
        
      ]
    },
    {
      "canonicalForm": "Bharathi Thirumagan",
      "list": [
        
      ]
    },
    {
      "canonicalForm": "Amritha Murali",
      "list": [
        
      ]
    },
    {
      "canonicalForm": "Srividya Sridharakumar",
      "list": [
        
      ]
    },
    {
      "canonicalForm": "Trichur V. Ramachandran",
      "list": [
        
      ]
    },
    {
      "canonicalForm": "Subhashini Parthasarathy",
      "list": [
        
      ]
    },
    {
      "canonicalForm": "Madhubala Rajkoomar",
      "list": [
        
      ]
    },
    {
      "canonicalForm": "Swetha Balasubramanian",
      "list": [
        
      ]
    },
    {
      "canonicalForm": "Gayathri Chandrasekhar",
      "list": [
        
      ]
    },
    {
      "canonicalForm": "Nisha Rajagopalan",
      "list": [
        
      ]
    },
    {
      "canonicalForm": "Bhavani Natarajan",
      "list": [
        
      ]
    },
    {
      "canonicalForm": "M. R. Subramaniam",
      "list": [
        
      ]
    },
    {
      "canonicalForm": "Sri Lasya Priya School",
      "list": [
        
      ]
    },
    {
      "canonicalForm": "T. N. Seshagopalan",
      "list": [
        
      ]
    },
    {
      "canonicalForm": "R. Rathipriya",
      "list": [
        
      ]
    },
    {
      "canonicalForm": "Barath Sundar",
      "list": [
        
      ]
    },
    {
      "canonicalForm": "Subhalakshmi Krishnamoorthy",
      "list": [
        
      ]
    },
    {
      "canonicalForm": "Vasundhara Rajagopalan",
      "list": [
        
      ]
    },
    {
      "canonicalForm": "R.S. Jayalakshmi",
      "list": [
        
      ]
    },
    {
      "canonicalForm": "Anahita & Apoorva",
      "list": [
        
      ]
    },
    {
      "canonicalForm": "Ritha Rajan",
      "list": [
        
      ]
    },
    {
      "canonicalForm": "Sembanarkoil S.R.G.S.Mohandas",
      "list": [
        
      ]
    },
    {
      "canonicalForm": "S. Shashank",
      "list": [
        
      ]
    },
   
    {
      "canonicalForm": "V. Sankaranarayanan",
      "list": [
        
      ]
    },
    {
      "canonicalForm": "N. Sivaganesh",
      "list": [
        
      ]
    },
    {
      "canonicalForm": "Ganesh Krupa",
      "list": [
        
      ]
    },
    {
      "canonicalForm": "Mysore Nagaraj & Mysore Manjunath",
      "list": [
        
      ]
    },
    {
      "canonicalForm": "Vishnudev Namboothiri",
      "list": [
        
      ]
    },
    {
      "canonicalForm": "Prof. T.V. Gopalakrishnan",
      "list": [
        
      ]
    },
    {
      "canonicalForm": "Suguna Varadachari",
      "list": [
        
      ]
    },
    {
      "canonicalForm": "V. V. Subramanyam & V.V.S.Murari",
      "list": [
        
      ]
    },
    {
      "canonicalForm": "60 women artistes",
      "list": [
        
      ]
    },
    {
      "canonicalForm": "Aishwarya Sankar",
      "list": [
        
      ]
    },
    {
      "canonicalForm": "Adithya Madhavan",
      "list": [
        
      ]
    },
   
    {
      "canonicalForm": "Udaiyalur Dr. K. Kalyanaraman",
      "list": [
        
      ]
    },
    {
      "canonicalForm": "K. Gayathri",
      "list": [
        
      ]
    },
    {
      "canonicalForm": "Vignesh Ishwar",
      "list": [
        
      ]
    },
    {
      "canonicalForm": "S Saketharaman",
      "list": [
        
      ]
    },
    {
      "canonicalForm": "Chinmaya Sisters",
      "list": [
        
      ]
    },
    {
      "canonicalForm": "Aruna Sairam",
      "list": [
        
      ]
    },
    {
      "canonicalForm": "Aruna Ranganathan",
      "list": [
        
      ]
    },
    {
      "canonicalForm": "Kalyani Ganesan",
      "list": [
        
      ]
    },
    {
      "canonicalForm": "Iyer Brothers",
      "list": [
        
      ]
    },
    {
      "canonicalForm": "Nanditha Ravi",
      "list": [
        
      ]
    },
    {
      "canonicalForm": "R.S.Jayalakshmi",
      "list": [
        
      ]
    },
    {
      "canonicalForm": "K. Arunprakash",
      "list": [
        
      ]
    },
    {
      "canonicalForm": "Vidya Raghavan",
      "list": [
        
      ]
    },
    {
      "canonicalForm": "J.B.Keerthana",
      "list": [
        
      ]
    },
    {
      "canonicalForm": "S.Srivathsan",
      "list": [
        
      ]
    },
    {
      "canonicalForm": "Arthi Ananth Krishnan",
      "list": [
        
      ]
    },
    {
      "canonicalForm": "J. K. Yoga Kirthana",
      "list": [
        
      ]
    },
    {
      "canonicalForm": " P G D Manivannan & Edumbavanam K S P Raja",
      "list": [
        
      ]
    },
    {
      "canonicalForm": "Bhargavi Venkatram",
      "list": [
        
      ]
    },
    {
      "canonicalForm": "R. Lakshmipriya",
      "list": [
        
      ]
    },
    {
      "canonicalForm": "Aishwarya Vidya Raghunath",
      "list": [
        
      ]
    },
    {
      "canonicalForm": "Injikkudi Subramanian",
      "list": [
        
      ]
    },
    {
      "canonicalForm": "Varalakshmi Anandkumar",
      "list": [
        
      ]
    },
    {
      "canonicalForm": "Seetha Rajan",
      "list": [
        
      ]
    },
    {
      "canonicalForm": "Sangeetha Sivakumar",
      "list": [
        
      ]
    },
    {
      "canonicalForm": "Thamarakkadu Govindan Nambudiri",
      "list": [
        
      ]
    },
    {
      "canonicalForm": "Archana & Arathi",
      "list": [
        
      ]
    },
    {
      "canonicalForm": "Vivek Sadasivam",
      "list": [
        
      ]
    },
    {
      "canonicalForm": "Subashri. V",
      "list": [
        
      ]
    },
    {
      "canonicalForm": "V. Venkata Nagarajan",
      "list": [
        
      ]
    },
    {
      "canonicalForm": "Malladi SuriBabu",
      "list": [
        
      ]
    },
    {
      "canonicalForm": "Mavelikkara Subramanian",
      "list": [
        
      ]
    },
    {
      "canonicalForm": "Brinda Manickavasagan",
      "list": [
        
      ]
    },
    {
      "canonicalForm": "Sumathi Krishnan with Charulatha Ramanujam",
      "list": [
        
      ]
    },
    {
      "canonicalForm": "T. V. Gopalakrishnan",
      "list": [
        
      ]
    },
    {
      "canonicalForm": "Vishnudev Nambudiri",
      "list": [
        
      ]
    },
    {
      "canonicalForm": "Bharath Sundar",
      "list": [
        
      ]
    },
    {
      "canonicalForm": "Manda Shruthi Ravali",
      "list": [
        
      ]
    },
    {
      "canonicalForm": "R.Vedavalli",
      "list": [
        
      ]
    },
    {
      "canonicalForm": "Swathy Krishnamurthy",
      "list": [
        
      ]
    },
    {
      "canonicalForm": "R. Ratipriya",
      "list": [
        
      ]
    },
    {
      "canonicalForm": "G.S.Mani",
      "list": [
        
      ]
    },
    {
      "canonicalForm": "C.Sukanya",
      "list": [
        
      ]
    },
    {
      "canonicalForm": "Vaikom Jayachandran",
      "list": [
        
      ]
    },
    {
      "canonicalForm": "Rama Ravi & Nanditha Ravi",
      "list": [
        
      ]
    },
    {
      "canonicalForm": "N. Bhairavi",
      "list": [
        
      ]
    },
    {
      "canonicalForm": "Sikkil Mala Chandrasekhar",
      "list": [
        
      ]
    },
    {
      "canonicalForm": "Sumithra Vasudev",
      "list": [
        
      ]
    },
    {
      "canonicalForm": "Bhavya Hari",
      "list": [
        
      ]
    },
    {
      "canonicalForm": "R. S. Jayalakshmi",
      "list": [
        
      ]
    },
    {
      "canonicalForm": "Sunil Gargyan",
      "list": [
        
      ]
    },
    {
      "canonicalForm": "Adayar D Balasubramaniam & N Purushotham",
      "list": [
        
      ]
    },
    {
      "canonicalForm": "Seetha Narayanan",
      "list": [
        
      ]
    },
    {
      "canonicalForm": "Bharathi Ramasubban",
      "list": [
        
      ]
    },
    {
      "canonicalForm": "N. Hari Adharsh",
      "list": [
        
      ]
    },
    {
      "canonicalForm": "T. K. Ramachandran",
      "list": [
        
      ]
    },
    {
      "canonicalForm": "Gayathri Venkatraghavan",
      "list": [
        
      ]
    },
    {
      "canonicalForm": "Sowmya Sudarshan",
      "list": [
        
      ]
    },
    {
      "canonicalForm": "N. Jayakrishnan",
      "list": [
        
      ]
    },
    {
      "canonicalForm": "Ashwin Anand",
      "list": [
        
      ]
    },
    {
      "canonicalForm": "Jyotsna Vivek",
      "list": [
        
      ]
    },
    {
      "canonicalForm": "Yashes Srinivasan",
      "list": [
        
      ]
    },
    {
      "canonicalForm": "Adithyanarayanan",
      "list": [
        
      ]
    },
    {
      "canonicalForm": "Neela Ramgopal",
      "list": [
        
      ]
    },
    {
      "canonicalForm": "J. B. Shruthi Sagar",
      "list": [
        
      ]
    },
    {
      "canonicalForm": "Padma Shankar",
      "list": [
        
      ]
    },
    {
      "canonicalForm": "Anirudh Subhramanian",
      "list": [
        
      ]
    },
    {
      "canonicalForm": "Karthick Suresh",
      "list": [
        
      ]
    },
    {
      "canonicalForm": "Vrinda Acharya",
      "list": [
        
      ]
    },
    {
      "canonicalForm": "D. Vamsi Krishna",
      "list": [
        
      ]
    },
    {
      "canonicalForm": "Mambalam Sivakumar",
      "list": [
        
      ]
    },
    {
      "canonicalForm": "Pranav Kikeri",
      "list": [
        
      ]
    },
    {
      "canonicalForm": "Karthik Raju",
      "list": [
        
      ]
    },
    {
      "canonicalForm": "Palghat Ramprasad",
      "list": [
        
      ]
    },
    {
      "canonicalForm": "Satarishi Hazra",
      "list": [
        
      ]
    },
    {
      "canonicalForm": "L. Archana",
      "list": [
        
      ]
    },
    {
      "canonicalForm": "Sia Iyer",
      "list": [
        
      ]
    },
    {
      "canonicalForm": "Sandhya Ramasami",
      "list": [
        
      ]
    },
    {
      "canonicalForm": "Aishwarya Chandrasekar",
      "list": [
        
      ]
    },
    {
      "canonicalForm": "K. Bhaskaran",
      "list": [
        
      ]
    },
    {
      "canonicalForm": "Srivathsan",
      "list": [
        
      ]
    },
    {
      "canonicalForm": "Preethi Narasimhan",
      "list": [
        
      ]
    },
    {
      "canonicalForm": "Swathi Srikrishna",
      "list": [
        
      ]
    },
    {
      "canonicalForm": "Rakshitha Ramesh",
      "list": [
        
      ]
    },
    {
      "canonicalForm": "Vani Ramamurthy",
      "list": [
        
      ]
    },
    {
      "canonicalForm": "Sahana Samraj",
      "list": [
        
      ]
    },
    {
      "canonicalForm": "Charumathi Raghuraman",
      "list": [
        
      ]
    },
    {
      "canonicalForm": "Sidarth Prakash",
      "list": [
        
      ]
    },
    {
      "canonicalForm": "S. Dharini",
      "list": [
        
      ]
    },
    {
      "canonicalForm": "Anjani Srinivasan",
      "list": [
        
      ]
    },
    {
      "canonicalForm": "Shankar Ramani",
      "list": [
        
      ]
    },
    {
      "canonicalForm": "T. N. S. Krishna",
      "list": [
        
      ]
    },
    {
      "canonicalForm": "Girijashankar",
      "list": [
        
      ]
    },
    {
      "canonicalForm": "Raghuveer & Narayanan",
      "list": [
        
      ]
    },
    {
      "canonicalForm": "Sruthi Natarajan",
      "list": [
        
      ]
    },
    {
      "canonicalForm": "Sriranjani",
      "list": [
        
      ]
    },
    {
      "canonicalForm": "Harsha Nagarajan",
      "list": [
        
      ]
    },
    {
      "canonicalForm": "Jagadish A.K. & Dilip Simha",
      "list": [
        
      ]
    },
    {
      "canonicalForm": "Shraddha Ganesh",
      "list": [
        
      ]
    },
    {
      "canonicalForm": "R Suryaprakash",
      "list": [
        
      ]
    },
    {
      "canonicalForm": "G. Charulatha",
      "list": [
        
      ]
    },
    {
      "canonicalForm": "Sankari Subramanian",
      "list": [
        
      ]
    },
    {
      "canonicalForm": "Rathipriya",
      "list": [
        
      ]
    },
    {
      "canonicalForm": "J. B. Keerthana",
      "list": [
        
      ]
    },
    {
      "canonicalForm": "Bhargavi Ganapathy",
      "list": [
        
      ]
    },
    {
      "canonicalForm": "Shriram Shastri",
      "list": [
        
      ]
    },
    {
      "canonicalForm": "Akshay Sridhar",
      "list": [
        
      ]
    },
    {
      "canonicalForm": "Shrisha & Shriusha",
      "list": [
        
      ]
    },
    {
      "canonicalForm": "Abhinav Mukundan",
      "list": [
        
      ]
    },
    {
      "canonicalForm": "G. Abhilash",
      "list": [
        
      ]
    },
    {
      "canonicalForm": "Krithika Natarajan",
      "list": [
        
      ]
    },
    {
      "canonicalForm": "K. N. Shashikiran & P. Ganesh",
      "list": [
        
      ]
    },
    {
      "canonicalForm": "Sudarshan Padmanabhan",
      "list": [
        
      ]
    },
    {
      "canonicalForm": "D. Vamsikrishna",
      "list": [
        
      ]
    },
    {
      "canonicalForm": "Prameela Gurumurthy",
      "list": [
        
      ]
    },
    {
      "canonicalForm": "T. Kalaimagan",
      "list": [
        
      ]
    },
    {
      "canonicalForm": "Rajshri Ramakrishna",
      "list": [
        
      ]
    },
    {
      "canonicalForm": "Jayashree Jeyaraaj Krishnan",
      "list": [
        
      ]
    },
    {
      "canonicalForm": "Jayalakshmi Sekar",
      "list": [
        
      ]
    },
    {
      "canonicalForm": "Sumathi Krishnan",
      "list": [
        
      ]
    },
    {
      "canonicalForm": "Arundhathi Krishnan",
      "list": [
        
      ]
    },
    {
      "canonicalForm": "M. Narmadha",
      "list": [
        
      ]
    },
    {
      "canonicalForm": "Bhargavi Balasubramaniam",
      "list": [
        
      ]
    },
    {
      "canonicalForm": "G. Ramanathan",
      "list": [
        
      ]
    },
    {
      "canonicalForm": "Vittal Ramamurthy & V. V. S. Murari",
      "list": [
        
      ]
    },
    {
      "canonicalForm": "Calcutta Sisters",
      "list": [
        
      ]
    },
    {
      "canonicalForm": "C. R. Vaidyanathan",
      "list": [
        
      ]
    },
    {
      "canonicalForm": "Srivani Ella",
      "list": [
        
      ]
    },
    {
      "canonicalForm": "Calcutta K. Srividhya",
      "list": [
        
      ]
    },
    {
      "canonicalForm": "Swarna Rethas",
      "list": [
        
      ]
    },
    {
      "canonicalForm": "Saralaya Sisters",
      "list": [
        
      ]
    },
    {
      "canonicalForm": "Lakshmi Sriram",
      "list": [
        
      ]
    },
    {
      "canonicalForm": "Subashree Ramachandran",
      "list": [
        
      ]
    },
    {
      "canonicalForm": "Salem Gayathri",
      "list": [
        
      ]
    },
    {
      "canonicalForm": "Aparna Jayaram",
      "list": [
        
      ]
    },
    {
      "canonicalForm": "S. Veena & S. Vidya",
      "list": [
        
      ]
    },
    {
      "canonicalForm": "Akshay Ananthapadmanabhan",
      "list": [
        
      ]
    },
    {
      "canonicalForm": "G. Sivachidambaram",
      "list": [
        
      ]
    },
    {
      "canonicalForm": "P. K. M. Ravi",
      "list": [
        
      ]
    },
    {
      "canonicalForm": "Namritha Venkatesan",
      "list": [
        
      ]
    },
    {
      "canonicalForm": "Kunnakudi M Balamuralikrishna",
      "list": [
        
      ]
    },
    {
      "canonicalForm": "Bhavadharini Anantharaman",
      "list": [
        
      ]
    },
    {
      "canonicalForm": "Bhargavi Venkatramanan",
      "list": [
        
      ]
    },
    {
      "canonicalForm": "S. Aditya Narayanan",
      "list": [
        
      ]
    },
    {
      "canonicalForm": "K. R. Easwaran",
      "list": [
        
      ]
    },
  
    {
      "canonicalForm": "Krithika Subramaniam",
      "list": [
        
      ]
    },
    {
      "canonicalForm": "Navia Natarajan",
      "list": [
        
      ]
    },
    {
      "canonicalForm": "M. Kodilingam",
      "list": [
        
      ]
    },
    {
      "canonicalForm": "Thirugnanasambandar",
      "list": [
        
      ]
    },
    {
      "canonicalForm": "Deepthi Ravichandran",
      "list": [
        
      ]
    },
    {
      "canonicalForm": "R. Shankar Ramani",
      "list": [
        
      ]
    },
    {
      "canonicalForm": "R. Sitalakshmi",
      "list": [
        
      ]
    },
    {
      "canonicalForm": "Ganesha Natyalaya",
      "list": [
        
      ]
    },
    {
      "canonicalForm": "Shwetha Prachande",
      "list": [
        
      ]
    },
    {
      "canonicalForm": "Sumitra Nitin",
      "list": [
        
      ]
    },
    {
      "canonicalForm": "Girijashankar Sundaresan",
      "list": [
        
      ]
    },
    {
      "canonicalForm": "Krishna Ramarathnam",
      "list": [
        
      ]
    },
    {
      "canonicalForm": "A. Kanyakumari & Embar S.Kannan",
      "list": [
        
      ]
    },
    {
      "canonicalForm": "Sunnambukulam Padmanabhan",
      "list": [
        
      ]
    },
    {
      "canonicalForm": "Sakthi Ravindran",
      "list": [
        
      ]
    },
    {
      "canonicalForm": "Dakshina Vaidyanathan",
      "list": [
        
      ]
    },
    {
      "canonicalForm": "Mahadevan Sankaranarayanan",
      "list": [
        
      ]
    },
    {
      "canonicalForm": "R. Mahendran & R Rajesh",
      "list": [
        
      ]
    },
    {
      "canonicalForm": "Vidya Subramanyam",
      "list": [
        
      ]
    },
    {
      "canonicalForm": "Bombay Jayashri",
      "list": [
        
      ]
    },
    {
      "canonicalForm": "Apoorva Jayaraman",
      "list": [
        
      ]
    },
    {
      "canonicalForm": "Swathy Ashok",
      "list": [
        
      ]
    },
    {
      "canonicalForm": "Sankari Subramanyam",
      "list": [
        
      ]
    },
    {
      "canonicalForm": "Disciples of Shobana",
      "list": [
        
      ]
    },
    {
      "canonicalForm": "Medha Hari",
      "list": [
        
      ]
    },
    {
      "canonicalForm": "Ranjith & Vijna",
      "list": [
        
      ]
    },
    {
      "canonicalForm": "V. Krupaa Lakshmi",
      "list": [
        
      ]
    },
    {
      "canonicalForm": "Dhivya Shiva Sundar",
      "list": [
        
      ]
    },
    {
      "canonicalForm": "Priyadarshini Govind",
      "list": [
        
      ]
    },
    {
      "canonicalForm": "Aishwarya & Saudarya",
      "list": [
        
      ]
    },
    {
      "canonicalForm": "Srisha Shashank",
      "list": [
        
      ]
    },
    {
      "canonicalForm": "Sangita Vasudevan",
      "list": [
        
      ]
    },
    {
      "canonicalForm": "V. Deepika & V. Nandika",
      "list": [
        
      ]
    },
    {
      "canonicalForm": "V .G. Vigneshwar",
      "list": [
        
      ]
    },
    {
      "canonicalForm": "Lavanya Ananth",
      "list": [
        
      ]
    },
    {
      "canonicalForm": "Sanchita & Saadhvi",
      "list": [
        
      ]
    },
    {
      "canonicalForm": "Akkarai Subhalakshmi",
      "list": [
        
      ]
    },
    {
      "canonicalForm": "Abishek Raghuram",
      "list": [
        
      ]
    },
    {
      "canonicalForm": "Shantala Subramanyam",
      "list": [
        
      ]
    },
    {
      "canonicalForm": "Maya & Malavi",
      "list": [
        
      ]
    },
    {
      "canonicalForm": "B. Kannan",
      "list": [
        
      ]
    },
    {
      "canonicalForm": "R. Subramani & E Gowtham",
      "list": [
        
      ]
    },
    {
      "canonicalForm": "G. Ravikiran",
      "list": [
        
      ]
    },
    {
      "canonicalForm": "Ganesh & Kumaresh",
      "list": [
        
      ]
    },
    {
      "canonicalForm": "Lakshmi Rangarajan",
      "list": [
        
      ]
    },
    {
      "canonicalForm": "Karthick Raju",
      "list": [
        
      ]
    },
    {
      "canonicalForm": "Rajeswari Sainath",
      "list": [
        
      ]
    },
    {
      "canonicalForm": "Keerthana Sankar",
      "list": [
        
      ]
    },
    {
      "canonicalForm": "Jyotsna Jagannathan",
      "list": [
        
      ]
    },
    {
      "canonicalForm": "Vaishnavee Sainath",
      "list": [
        
      ]
    },
    
    {
      "canonicalForm": "Kalapradarshini",
      "list": [
        
      ]
    },
    {
      "canonicalForm": "Nirmala Rajasekar",
      "list": [
        
      ]
    },
    {
      "canonicalForm": "Bhavya Ramachandran Balasubramaniam",
      "list": [
        
      ]
    },
    {
      "canonicalForm": "Tiruvarur Girish",
      "list": [
        
      ]
    },
    {
      "canonicalForm": "Shraddha Mohan",
      "list": [
        
      ]
    },
    {
      "canonicalForm": "S. Ve. Shekher",
      "list": [
        
      ]
    },
    {
      "canonicalForm": "Kartik & Sumanth",
      "list": [
        
      ]
    },
    {
      "canonicalForm": "J. Lakshmi Priya",
      "list": [
        
      ]
    },
    {
      "canonicalForm": "Harish Kishen",
      "list": [
        
      ]
    },
    {
      "canonicalForm": "J.A. Jayanth",
      "list": [
        
      ]
    },
    
    {
      "canonicalForm": "Ramana Balachandra",
      "list": [
        
      ]
    },
    {
      "canonicalForm": "S. Adithyanarayanan",
      "list": [
        
      ]
    },
    {
      "canonicalForm": "Vishruthi Girish",
      "list": [
        
      ]
    },
    {
      "canonicalForm": "Chaitrra Sairam",
      "list": [
        
      ]
    },
    {
      "canonicalForm": "Abhilash Giri Prasad",
      "list": [
        
      ]
    },
    {
      "canonicalForm": "Krupaa Lakshmi",
      "list": [
        
      ]
    },
    {
      "canonicalForm": "Madhu Iyer",
      "list": [
        
      ]
    },
    {
      "canonicalForm": "Swarnamalya Ganesh",
      "list": [
        
      ]
    },
    {
      "canonicalForm": "K. Kalyanarama Bagavathar",
      "list": [
        
      ]
    },
    {
      "canonicalForm": "O. S. Sundar",
      "list": [
        
      ]
    },
    {
      "canonicalForm": "Mala Ramadorai",
      "list": [
        
      ]
    },
    {
      "canonicalForm": "Lavanya Sankar",
      "list": [
        
      ]
    },
    {
      "canonicalForm": "Leela Samson",
      "list": [
        
      ]
    },
    {
      "canonicalForm": "Ashwini Senthil",
      "list": [
        
      ]
    },
    {
      "canonicalForm": "Vaishali Chandrasekhar",
      "list": [
        
      ]
    },
    {
      "canonicalForm": "Vittaldas Jayakrishna Dikshithar",
      "list": [
        
      ]
    },
    {
      "canonicalForm": "P. Praveenkumar",
      "list": [
        
      ]
    },
    {
      "canonicalForm": "Snigdha Menon",
      "list": [
        
      ]
    },
    {
      "canonicalForm": "G. Reshma",
      "list": [
        
      ]
    },
    {
      "canonicalForm": "Lakshmi Parthasarathy Athreya",
      "list": [
        
      ]
    },
    {
      "canonicalForm": "Mridula Sivakumar",
      "list": [
        
      ]
    },
    {
      "canonicalForm": "Hamsa Balagurunathan",
      "list": [
        
      ]
    },
    {
      "canonicalForm": "Padmavani and Jaikishore Mosalikanti",
      "list": [
        
      ]
    },
    {
      "canonicalForm": "Meera Anand",
      "list": [
        
      ]
    },
    {
      "canonicalForm": "B. AmrithaVarshini",
      "list": [
        
      ]
    },
    {
      "canonicalForm": "PadmaSubrahmanyam",
      "list": [
        
      ]
    },
    {
      "canonicalForm": "Shradha",
      "list": [
        
      ]
    },
    {
      "canonicalForm": "Akshaya Arul",
      "list": [
        
      ]
    },
    {
      "canonicalForm": "Shashank Subramanyam",
      "list": [
        
      ]
    },
    {
      "canonicalForm": "Tvishi Duggal",
      "list": [
        
      ]
    },
    {
      "canonicalForm": "Deepesh Hoskere",
      "list": [
        
      ]
    },
    {
      "canonicalForm": "Priyanka .R",
      "list": [
        
      ]
    },
    {
      "canonicalForm": "Kalaisan Kalaichelvan",
      "list": [
        
      ]
    },
    {
      "canonicalForm": "Bhabhi",
      "list": [
        
      ]
    },
    {
      "canonicalForm": "M.K.S.Siva",
      "list": [
        
      ]
    },
    {
      "canonicalForm": "Meenakshi Srinivasan",
      "list": [
        
      ]
    },
    {
      "canonicalForm": "Rama Vaidyanathan",
      "list": [
        
      ]
    },
    {
      "canonicalForm": "Athul Kumar",
      "list": [
        
      ]
    },
    {
      "canonicalForm": "Dhamayanthi",
      "list": [
        
      ]
    },
    {
      "canonicalForm": "Krishnalaxmi",
      "list": [
        
      ]
    },
    {
      "canonicalForm": "Jayashree Vaidyanathan",
      "list": [
        
      ]
    },
    {
      "canonicalForm": "Visaka Hari",
      "list": [
        
      ]
    },
    {
      "canonicalForm": "Sushmitha Rajtilak",
      "list": [
        
      ]
    },
    {
      "canonicalForm": "Jyothsna Jagannathan",
      "list": [
        
      ]
    },
    {
      "canonicalForm": "Samyuktha",
      "list": [
        
      ]
    },
    {
      "canonicalForm": "Anamika Suresh",
      "list": [
        
      ]
    },
    {
      "canonicalForm": "S. Keerthana",
      "list": [
        
      ]
    },
    {
      "canonicalForm": "Anjali Hariharan",
      "list": [
        
      ]
    },
    {
      "canonicalForm": "R. Vineeth",
      "list": [
        
      ]
    },
    {
      "canonicalForm": "G. Bagya Lakshmi",
      "list": [
        
      ]
    },
    {
      "canonicalForm": "Divya Ravi",
      "list": [
        
      ]
    },
    {
      "canonicalForm": "Laxminarayan Jena",
      "list": [
        
      ]
    },
    {
      "canonicalForm": "Renjith Babu & Vijna Vasudevan",
      "list": [
        
      ]
    },
    {
      "canonicalForm": "Lalgudi Vijayalakshmi",
      "list": [
        
      ]
    },
    {
      "canonicalForm": "Sneha Chakrapani",
      "list": [
        
      ]
    },
    {
      "canonicalForm": "Patri Satish Kumar & Poovalur Srinivasan",
      "list": [
        
      ]
    },
    {
      "canonicalForm": "Aishwarya Krishnakumar",
      "list": [
        
      ]
    },
    {
      "canonicalForm": "Subashri Sasidharan",
      "list": [
        
      ]
    },
    {
      "canonicalForm": "Manasa Sriram",
      "list": [
        
      ]
    },
    {
      "canonicalForm": "Alarmelvalli",
      "list": [
        
      ]
    },
    {
      "canonicalForm": "Swathi M.Kumar",
      "list": [
        
      ]
    },
    {
      "canonicalForm": "Vidhya Kanthan",
      "list": [
        
      ]
    },
    {
      "canonicalForm": "Hrishikesh & Priyanka Chary",
      "list": [
        
      ]
    },
    {
      "canonicalForm": "Shreya Iyer",
      "list": [
        
      ]
    },
    {
      "canonicalForm": "Palghat R.Ramprasad",
      "list": [
        
      ]
    },
    {
      "canonicalForm": "Ragini Chandrasekar",
      "list": [
        
      ]
    },
    {
      "canonicalForm": "Savitha Sundarsan",
      "list": [
        
      ]
    },
    {
      "canonicalForm": "R.Kumaresh",
      "list": [
        
      ]
    },
    {
      "canonicalForm": "Sadanam Balakrishnan",
      "list": [
        
      ]
    },
    {
      "canonicalForm": "Priyadarsini Govind",
      "list": [
        
      ]
    },
    {
      "canonicalForm": "Brahmasri Vittaldas Jayakrishna",
      "list": [
        
      ]
    },
    {
      "canonicalForm": "Yatheesan Selvakumar",
      "list": [
        
      ]
    },
    {
      "canonicalForm": "Sujatha Mohapatra",
      "list": [
        
      ]
    },
    {
      "canonicalForm": "Krithika .S",
      "list": [
        
      ]
    },
    {
      "canonicalForm": "U.Rajesh",
      "list": [
        
      ]
    },
    {
      "canonicalForm": "Chithra Lakshmanan",
      "list": [
        
      ]
    },
    {
      "canonicalForm": "Uma Nambudripad Sathyanarayanan",
      "list": [
        
      ]
    },
    {
      "canonicalForm": "Parshwanath. S. Upadhye",
      "list": [
        
      ]
    },
    {
      "canonicalForm": "C. M. Devaprayaga",
      "list": [
        
      ]
    },
    {
      "canonicalForm": "Maithreyi Suresh Iyer",
      "list": [
        
      ]
    },
    {
      "canonicalForm": "Aishwarya Balasubramanian",
      "list": [
        
      ]
    },
    {
      "canonicalForm": "Venkatasubramanian",
      "list": [
        
      ]
    },
    {
      "canonicalForm": "R. Harini",
      "list": [
        
      ]
    },
    {
      "canonicalForm": "A. G. Gnanasundaram & M.Vijay Ganesh",
      "list": [
        
      ]
    },
    {
      "canonicalForm": "Vittal Ramamurthy",
      "list": [
        
      ]
    },
    {
      "canonicalForm": "Dhivya S. Pillai",
      "list": [
        
      ]
    },
    {
      "canonicalForm": "Sreelatha Vinod",
      "list": [
        
      ]
    },
    {
      "canonicalForm": "Anita R.Ratnam",
      "list": [
        
      ]
    },
    
    {
      "canonicalForm": "Ashwat Narayanan",
      "list": [
        
      ]
    },
    {
      "canonicalForm": "K. N. Renganatha Sharma",
      "list": [
        
      ]
    },
    {
      "canonicalForm": "V. Venkatanagarajan",
      "list": [
        
      ]
    },
    {
      "canonicalForm": "Thirumeignanam Brothers",
      "list": [
        
      ]
    },
    {
      "canonicalForm": "Savita Sreeram",
      "list": [
        
      ]
    },
    {
      "canonicalForm": "Shantala Subramaniam",
      "list": [
        
      ]
    },
    {
      "canonicalForm": "Vasundara Rajagopal",
      "list": [
        
      ]
    },
    {
      "canonicalForm": "Udayalur Kalyanarama Bagavathar",
      "list": [
        
      ]
    },
    {
      "canonicalForm": "Gayatri Satya",
      "list": [
        
      ]
    },
    {
      "canonicalForm": "Brinda Manickavasagam",
      "list": [
        
      ]
    },
    {
      "canonicalForm": "Nandita Ravi",
      "list": [
        
      ]
    },
   
    {
      "canonicalForm": "R.K. Shriramkumar",
      "list": [
        
      ]
    },
    {
      "canonicalForm": "Keerthana Vaidyanathan",
      "list": [
        
      ]
    },
    {
      "canonicalForm": "Aishwarya Srinivas",
      "list": [
        
      ]
    },
    {
      "canonicalForm": "S. Karthick",
      "list": [
        
      ]
    },
    {
      "canonicalForm": "Sai Vignesh",
      "list": [
        
      ]
    },
    {
      "canonicalForm": "Amrutha Venkatesh",
      "list": [
        
      ]
    },
    {
      "canonicalForm": "Sriram Parthasarathy",
      "list": [
        
      ]
    },
    {
      "canonicalForm": "Maya  & Malavi Ravindran",
      "list": [
        
      ]
    },
    {
      "canonicalForm": "R. Surya Prakash",
      "list": [
        
      ]
    },
    {
      "canonicalForm": "J .A. Jayanth",
      "list": [
        
      ]
    },
    {
      "canonicalForm": "Rama Ravi and Dr. Nandita Ravi",
      "list": [
        
      ]
    },
    {
      "canonicalForm": "Madurai T.N. Seshagopalan",
      "list": [
        
      ]
    },
    {
      "canonicalForm": "Saranya Krishnan",
      "list": [
        
      ]
    },
    {
      "canonicalForm": "B. Vijaya Gopal",
      "list": [
        
      ]
    },
    {
      "canonicalForm": "Baby Sreeram",
      "list": [
        
      ]
    },
    {
      "canonicalForm": "S. Maalavika",
      "list": [
        
      ]
    },
    {
      "canonicalForm": "R. Ganesh",
      "list": [
        
      ]
    },
    {
      "canonicalForm": "Vamsi Krishna",
      "list": [
        
      ]
    },
    {
      "canonicalForm": "Akkarsh & Anirudh",
      "list": [
        
      ]
    },
    {
      "canonicalForm": "S. Radhakrishnan & Muthukumar",
      "list": [
        
      ]
    },
    {
      "canonicalForm": "H. Subramoni",
      "list": [
        
      ]
    },
    {
      "canonicalForm": "Virugambakkam Sisters",
      "list": [
        
      ]
    },
    {
      "canonicalForm": "Dr. M. Chandrasekaran & G. Bharathi",
      "list": [
        
      ]
    },
    {
      "canonicalForm": "Rajhesh Vaidya",
      "list": [
        
      ]
    },
    {
      "canonicalForm": "Bargav S.Hariharan",
      "list": [
        
      ]
    },
    {
      "canonicalForm": "Brinda Manikavasakan",
      "list": [
        
      ]
    },
    {
      "canonicalForm": "Rajeswary Shankar",
      "list": [
        
      ]
    },
    {
      "canonicalForm": "Hari Agnisarman Kappiyoor",
      "list": [
        
      ]
    },
    {
      "canonicalForm": "Vaishnavi Ramdas",
      "list": [
        
      ]
    },
    {
      "canonicalForm": "S. M.Vilasini",
      "list": [
        
      ]
    },
    {
      "canonicalForm": "Sudarsan Ravi",
      "list": [
        
      ]
    },
    {
      "canonicalForm": "Anahitaha & Apoorva",
      "list": [
        
      ]
    },
    {
      "canonicalForm": "Jayashri Vaidhyanathan",
      "list": [
        
      ]
    },
    {
      "canonicalForm": "Vidhya Raghavan",
      "list": [
        
      ]
    },
    {
      "canonicalForm": "Kalyanapuram S.Aravind",
      "list": [
        
      ]
    },
    {
      "canonicalForm": "Namagirpettai Gokulakrishnan",
      "list": [
        
      ]
    },
    {
      "canonicalForm": "Lakshmi Kumaraguruparan",
      "list": [
        
      ]
    },
    {
      "canonicalForm": "Nishanth Thiagarajan",
      "list": [
        
      ]
    },
    {
      "canonicalForm": "J. Sathya Sriram",
      "list": [
        
      ]
    },
    {
      "canonicalForm": "S. Srivatson",
      "list": [
        
      ]
    },
    {
      "canonicalForm": "Neyveli Radhakrishnan",
      "list": [
        
      ]
    },
    {
      "canonicalForm": "Master U. Jaya Vignesh",
      "list": [
        
      ]
    },
    {
      "canonicalForm": "Hrishikesh Chari &Priyanka Chari",
      "list": [
        
      ]
    },
    {
      "canonicalForm": "Charnya Man Aditya",
      "list": [
        
      ]
    },
    {
      "canonicalForm": "Mathangi Rudhrakumar",
      "list": [
        
      ]
    },
    {
      "canonicalForm": "Shruti S.Bhat",
      "list": [
        
      ]
    },
    {
      "canonicalForm": "Ameya Karthikeyan",
      "list": [
        
      ]
    },
    {
      "canonicalForm": "Vani Sangeetha Gurukulam",
      "list": [
        
      ]
    },
    {
      "canonicalForm": "S.Ramkumar",
      "list": [
        
      ]
    },
    {
      "canonicalForm": "Arjun Sambasivam & R.Narayanan",
      "list": [
        
      ]
    },
    {
      "canonicalForm": "Gayathri Satya",
      "list": [
        
      ]
    },
    {
      "canonicalForm": "Sakthi Ravitharan",
      "list": [
        
      ]
    },
    {
      "canonicalForm": "Pooja Suresh & Supraja Suresh",
      "list": [
        
      ]
    },
    {
      "canonicalForm": "Gayathri Govindarajan  & Ajay",
      "list": [
        
      ]
    },
    {
      "canonicalForm": "Sanjay Subramanian",
      "list": [
        
      ]
    },
    {
      "canonicalForm": "R.Ganesh",
      "list": [
        
      ]
    },
    {
      "canonicalForm": "Roja Kannan",
      "list": [
        
      ]
    },
    {
      "canonicalForm": "Maharajapuram Ganesh Vishwanthan",
      "list": [
        
      ]
    },
    {
      "canonicalForm": "UP Raju & Nagamani",
      "list": [
        
      ]
    },
    {
      "canonicalForm": "Kunnakudi M.Balamuralikrishna",
      "list": [
        
      ]
    },
    {
      "canonicalForm": "Diksha Reddy",
      "list": [
        
      ]
    },
    {
      "canonicalForm": "K.Ranga",
      "list": [
        
      ]
    },
    {
      "canonicalForm": "Vasudevan & K R Sundaramurthy",
      "list": [
        
      ]
    },
    {
      "canonicalForm": "Nithyasri",
      "list": [
        
      ]
    },
    {
      "canonicalForm": " A G Shanmugam & T Manikandan",
      "list": [
        
      ]
    },
    {
      "canonicalForm": "Shwetha & Ramya",
      "list": [
        
      ]
    },
    {
      "canonicalForm": "Ragam Sisters",
      "list": [
        
      ]
    },
    {
      "canonicalForm": "N Vijay Siva",
      "list": [
        
      ]
    },
    {
      "canonicalForm": "Sruthi Sagar & J.B. Keerthana",
      "list": [
        
      ]
    },
    {
      "canonicalForm": "Sukanya Ramgopal",
      "list": [
        
      ]
    },
    {
      "canonicalForm": "Sushma Somasekaran",
      "list": [
        
      ]
    },
    {
      "canonicalForm": "M. Narmada",
      "list": [
        
      ]
    },
    {
      "canonicalForm": "Uma Money",
      "list": [
        
      ]
    },
    {
      "canonicalForm": "Amrutha Ranjani",
      "list": [
        
      ]
    },
    {
      "canonicalForm": "Gayathriri Venkataraghavan",
      "list": [
        
      ]
    },
    {
      "canonicalForm": "Sandhya Ramaswamy",
      "list": [
        
      ]
    },
    {
      "canonicalForm": "Lakshmi Priya",
      "list": [
        
      ]
    },
    {
      "canonicalForm": "M. V. S. Nisha",
      "list": [
        
      ]
    },
    {
      "canonicalForm": "J. A Jayanth",
      "list": [
        
      ]
    },
    {
      "canonicalForm": "K N Purushotham & D Ayyapan",
      "list": [
        
      ]
    },
    {
      "canonicalForm": "A.Kanyakumari & L. Ramakrishnan",
      "list": [
        
      ]
    },
    {
      "canonicalForm": "Aishwarya Vidhya Raghunath",
      "list": [
        
      ]
    },
    {
      "canonicalForm": "Chinmayi",
      "list": [
        
      ]
    },
    {
      "canonicalForm": "V. Sreeram",
      "list": [
        
      ]
    },
    {
      "canonicalForm": "A. Narayanan",
      "list": [
        
      ]
    },
    {
      "canonicalForm": "V. V. S. Murari",
      "list": [
        
      ]
    },
    {
      "canonicalForm": "Urmila Satyanarayanan",
      "list": [
        
      ]
    },
    {
      "canonicalForm": "Venkata Nagarajan",
      "list": [
        
      ]
    },
    {
      "canonicalForm": "Sridevi Nrithyalaya",
      "list": [
        
      ]
    },
    {
      "canonicalForm": "Dummies Drama",
      "list": [
        
      ]
    },
    {
      "canonicalForm": "Ramnath Venkat Bhagavath",
      "list": [
        
      ]
    },
    {
      "canonicalForm": "Chitra Poornima Satish",
      "list": [
        
      ]
    },
    {
      "canonicalForm": "Veena Venkataramani",
      "list": [
        
      ]
    },
    {
      "canonicalForm": "Ranganayaki Sachidanandan",
      "list": [
        
      ]
    },
    {
      "canonicalForm": "T K S Pugazhendi Tamizh Selvan",
      "list": [
        
      ]
    },
    {
      "canonicalForm": "Kadiresan Oduvar",
      "list": [
        
      ]
    },
    {
      "canonicalForm": "Seshampatti Sivalingam",
      "list": [
        
      ]
    },
    {
      "canonicalForm": "Mayiladuthurai Sivakumar Oduvar",
      "list": [
        
      ]
    },
    {
      "canonicalForm": "Padmalakshme Suresh",
      "list": [
        
      ]
    },
    {
      "canonicalForm": "B. Lalitha",
      "list": [
        
      ]
    },
    {
      "canonicalForm": "S. Gnanaprakasam & Sargurunathan",
      "list": [
        
      ]
    },
    {
      "canonicalForm": "Sushma Somasekar",
      "list": [
        
      ]
    },
    {
      "canonicalForm": "TVS Shanmuga Vadivu",
      "list": [
        
      ]
    },
    {
      "canonicalForm": "S R G S Samrat",
      "list": [
        
      ]
    },
    {
      "canonicalForm": "T. Athulkumat",
      "list": [
        
      ]
    },
    {
      "canonicalForm": "Muthukumarasamy",
      "list": [
        
      ]
    },
    {
      "canonicalForm": "Sailaja",
      "list": [
        
      ]
    },
    {
      "canonicalForm": "Aradhana",
      "list": [
        
      ]
    },
    {
      "canonicalForm": "Madurai Mani Somasundaram",
      "list": [
        
      ]
    },
    {
      "canonicalForm": "Sirkazhi Sivachidambaram",
      "list": [
        
      ]
    },
    {
      "canonicalForm": "Pondicherry Thiruvaranga Yayati",
      "list": [
        
      ]
    },
    {
      "canonicalForm": "Chidambaram Vayalur Gnana Balachandran",
      "list": [
        
      ]
    },
    {
      "canonicalForm": "Suresh Sivan",
      "list": [
        
      ]
    },
    {
      "canonicalForm": "Pushpavanam Kuppusamy",
      "list": [
        
      ]
    },
    {
      "canonicalForm": "T K S Kalaivanan",
      "list": [
        
      ]
    },
    {
      "canonicalForm": "Thirukkadaiyur Murali",
      "list": [
        
      ]
    },
    {
      "canonicalForm": "Apoorva Krishna",
      "list": [
        
      ]
    },
    {
      "canonicalForm": "Vijayalakshmi Subramaniam",
      "list": [
        
      ]
    },
    {
      "canonicalForm": "Students of Natyakshetra",
      "list": [
        
      ]
    },
    {
      "canonicalForm": "Saroja Vaidyanathan",
      "list": [
        
      ]
    },
    {
      "canonicalForm": "London Yogeswaran",
      "list": [
        
      ]
    },
    {
      "canonicalForm": "M S V troupe",
      "list": [
        
      ]
    },
    {
      "canonicalForm": "Jayashri Rajagopal",
      "list": [
        
      ]
    },
    {
      "canonicalForm": "Lakshmanasamy",
      "list": [
        
      ]
    },
    {
      "canonicalForm": "Kousalya Sivakumar",
      "list": [
        
      ]
    },
    {
      "canonicalForm": "Mrudula Anand",
      "list": [
        
      ]
    },
    {
      "canonicalForm": "Revathi Krishna",
      "list": [
        
      ]
    },
    {
      "canonicalForm": "Students of Tamizh Music College",
      "list": [
        
      ]
    },
    {
      "canonicalForm": "T R S Jagannathan",
      "list": [
        
      ]
    },
    {
      "canonicalForm": "Krishnakumari Narendran",
      "list": [
        
      ]
    },
    {
      "canonicalForm": "M. S. Martin",
      "list": [
        
      ]
    },
    {
      "canonicalForm": "Students of Tamizh Isai College",
      "list": [
        
      ]
    },
    {
      "canonicalForm": "S. Ve. Shekar",
      "list": [
        
      ]
    },
    {
      "canonicalForm": "Anu Burman",
      "list": [
        
      ]
    },
    {
      "canonicalForm": "Upanyasam on ‘Sikshashtakam’",
      "list": [
        
      ]
    },
    {
      "canonicalForm": "Adityaram",
      "list": [
        
      ]
    },
    {
      "canonicalForm": "Rukshikaa",
      "list": [
        
      ]
    },
    {
      "canonicalForm": "Ratipriya",
      "list": [
        
      ]
    },
    {
      "canonicalForm": "Sreeranjane. R",
      "list": [
        
      ]
    },
    {
      "canonicalForm": "Ramakrishnanmurthy",
      "list": [
        
      ]
    },
    {
      "canonicalForm": "Varalakshmi Anandakumar",
      "list": [
        
      ]
    },
    {
      "canonicalForm": "Madhumitha Sridharan",
      "list": [
        
      ]
    },
    {
      "canonicalForm": "Deepthi Suresh",
      "list": [
        
      ]
    },
    {
      "canonicalForm": "Calcutta K. Srividya",
      "list": [
        
      ]
    },
    {
      "canonicalForm": "Shyama Balachandran",
      "list": [
        
      ]
    },
    {
      "canonicalForm": "V.P. Yashvanth",
      "list": [
        
      ]
    },
    {
      "canonicalForm": "Akshayam Group",
      "list": [
        
      ]
    },
    {
      "canonicalForm": "'Swaraarnava' group",
      "list": [
        
      ]
    },
    {
      "canonicalForm": "Shenkottai Hari Bagavathar",
      "list": [
        
      ]
    },
    {
      "canonicalForm": "S. Jayabargavi",
      "list": [
        
      ]
    },
    {
      "canonicalForm": "Bharathanatyam by Kishore Mosalikanti",
      "list": [
        
      ]
    },
    {
      "canonicalForm": "Dr.Mathangi Ramakrishnan",
      "list": [
        
      ]
    },
    {
      "canonicalForm": "Seethalakshmi",
      "list": [
        
      ]
    },
    {
      "canonicalForm": "Durga Venkatesh",
      "list": [
        
      ]
    },
    {
      "canonicalForm": "S. Nithyasree",
      "list": [
        
      ]
    },
    {
      "canonicalForm": "Revathi Ramachandran",
      "list": [
        
      ]
    },
    {
      "canonicalForm": "Rashmi Menon",
      "list": [
        
      ]
    },
    {
      "canonicalForm": "S.Niveditha",
      "list": [
        
      ]
    },
    {
      "canonicalForm": "Radhika Vairavelavan",
      "list": [
        
      ]
    },
    {
      "canonicalForm": "Prithivija Balgopalan",
      "list": [
        
      ]
    },
    {
      "canonicalForm": "Dr.Jayashree Rajagopalan",
      "list": [
        
      ]
    },
    {
      "canonicalForm": "Varshini Ramanathan",
      "list": [
        
      ]
    },
    {
      "canonicalForm": "Venkatraman",
      "list": [
        
      ]
    },
    {
      "canonicalForm": "Rohini Shankar",
      "list": [
        
      ]
    },
    {
      "canonicalForm": "Guhan Venkataraman",
      "list": [
        
      ]
    },
    {
      "canonicalForm": "Smarabh Sriram",
      "list": [
        
      ]
    },
    {
      "canonicalForm": "Sriram parasuram",
      "list": [
        
      ]
    },
    {
      "canonicalForm": "Parur M.S.Ananthashree",
      "list": [
        
      ]
    },
    {
      "canonicalForm": "Kameshweri Ganesan",
      "list": [
        
      ]
    },
    {
      "canonicalForm": "K.Upanisha",
      "list": [
        
      ]
    },
    {
      "canonicalForm": "Sheejith Krishna",
      "list": [
        
      ]
    },
    {
      "canonicalForm": "Natyashala School",
      "list": [
        
      ]
    },
    {
      "canonicalForm": "Sushama Ranganathan",
      "list": [
        
      ]
    },
    {
      "canonicalForm": "K. Bharath Sundar",
      "list": [
        
      ]
    },
    {
      "canonicalForm": "Sweta Balasubramanian",
      "list": [
        
      ]
    },
    {
      "canonicalForm": "Saumya Hariharan",
      "list": [
        
      ]
    },
    {
      "canonicalForm": "Shreya Balakrishnan",
      "list": [
        
      ]
    },
    {
      "canonicalForm": "K. Ameya",
      "list": [
        
      ]
    },
    {
      "canonicalForm": "K .J. Yesudas",
      "list": [
        
      ]
    },
    {
      "canonicalForm": "Kokila Sundararajan",
      "list": [
        
      ]
    },
    {
      "canonicalForm": "D B Ashwin",
      "list": [
        
      ]
    },
    {
      "canonicalForm": "Ragapriya group",
      "list": [
        
      ]
    },
    {
      "canonicalForm": "B. Abinaya",
      "list": [
        
      ]
    },
    {
      "canonicalForm": "Roopa Guha",
      "list": [
        
      ]
    },
    {
      "canonicalForm": "N. Jaya Krishnan",
      "list": [
        
      ]
    },
    {
      "canonicalForm": "Priyanka Raghuraman",
      "list": [
        
      ]
    },
    {
      "canonicalForm": "Melattur Bhagavathamela",
      "list": [
        
      ]
    },
    
    {
      "canonicalForm": "Aruna Prabha Ranganathan",
      "list": [
        
      ]
    },
    {
      "canonicalForm": "Deepa Ramanathan",
      "list": [
        
      ]
    },
    {
      "canonicalForm": "Chidambaram Academy",
      "list": [
        
      ]
    },
    {
      "canonicalForm": "Jayalakshmi Shekar",
      "list": [
        
      ]
    },
    {
      "canonicalForm": "Anirudh Venkatesh",
      "list": [
        
      ]
    },
    {
      "canonicalForm": "Ranganatha Sharma",
      "list": [
        
      ]
    },
    {
      "canonicalForm": "K.Samhita",
      "list": [
        
      ]
    },
    {
      "canonicalForm": "Duddu Radhikka",
      "list": [
        
      ]
    },
    {
      "canonicalForm": "Swetha & Ramya",
      "list": [
        
      ]
    },
    {
      "canonicalForm": "Srividya Ganesan",
      "list": [
        
      ]
    },
    {
      "canonicalForm": "V.Sankaranarayanan",
      "list": [
        
      ]
    },
    {
      "canonicalForm": "O. S. Thyagarajan",
      "list": [
        
      ]
    },
    {
      "canonicalForm": "Sunil R.Gargyan",
      "list": [
        
      ]
    },
    {
      "canonicalForm": "R.Kashyap Mahesh",
      "list": [
        
      ]
    },
    {
      "canonicalForm": "J.A.Jayanth",
      "list": [
        
      ]
    },
    {
      "canonicalForm": "Sushma Somasekharan",
      "list": [
        
      ]
    },
    {
      "canonicalForm": "S. Varadarajan",
      "list": [
        
      ]
    },
    {
      "canonicalForm": "S.Srinivasan",
      "list": [
        
      ]
    },
    {
      "canonicalForm": "P.K.M. Ravi",
      "list": [
        
      ]
    },
    {
      "canonicalForm": "T.N. krishnan",
      "list": [
        
      ]
    },
    {
      "canonicalForm": "D.B.Ashwin",
      "list": [
        
      ]
    },
    {
      "canonicalForm": "K.P.Nandini",
      "list": [
        
      ]
    },
    {
      "canonicalForm": "Karthika Vaidyanathan",
      "list": [
        
      ]
    },
    {
      "canonicalForm": "Sujit Nayak",
      "list": [
        
      ]
    },
    {
      "canonicalForm": "Sugandha Kalamegam",
      "list": [
        
      ]
    },
    {
      "canonicalForm": "Neyveli Santanagopalan",
      "list": [
        
      ]
    },
    {
      "canonicalForm": "B. Balasubrahmaniyan",
      "list": [
        
      ]
    },
    {
      "canonicalForm": "Lalgudi G.J.R.Krishnan & Lalgudi Vijayalakshmi",
      "list": [
        
      ]
    },
    {
      "canonicalForm": "Raji Gopalakrishnan",
      "list": [
        
      ]
    },
    {
      "canonicalForm": "N. Ravi Kiran",
      "list": [
        
      ]
    },
    {
      "canonicalForm": "Trichur V.Ramachandran",
      "list": [
        
      ]
    },
    {
      "canonicalForm": "Sumitra Vasudev",
      "list": [
        
      ]
    },
    {
      "canonicalForm": "Prasanna Venkataraman",
      "list": [
        
      ]
    },
    {
      "canonicalForm": "Lakshmi Ramasubramanian",
      "list": [
        
      ]
    },
    {
      "canonicalForm": "Manda Sudharani",
      "list": [
        
      ]
    },
    {
      "canonicalForm": "N. R. P. Ravichandran",
      "list": [
        
      ]
    },
    {
      "canonicalForm": "Brinda Manickavasakam",
      "list": [
        
      ]
    },
    {
      "canonicalForm": "Vyasarpadi G.Kothandaraman",
      "list": [
        
      ]
    },
    {
      "canonicalForm": "R.Ashwath Narayanan",
      "list": [
        
      ]
    },
    {
      "canonicalForm": "Bharat Sundar K",
      "list": [
        
      ]
    },
    {
      "canonicalForm": "Visakha Hari",
      "list": [
        
      ]
    },
    {
      "canonicalForm": "Sangeetha Swaminathan",
      "list": [
        
      ]
    },
    {
      "canonicalForm": "Kunnakkudy M. Balamuralikrishna",
      "list": [
        
      ]
    },
    {
      "canonicalForm": "Shertalai Renganatha Sharma",
      "list": [
        
      ]
    },
    {
      "canonicalForm": "Bombay Sisters",
      "list": [
        
      ]
    },
    {
      "canonicalForm": "S.Shashank",
      "list": [
        
      ]
    },
    {
      "canonicalForm": "K. Gayatri",
      "list": [
        
      ]
    },
    {
      "canonicalForm": "M.Chandrasekharan & G.Bharathi",
      "list": [
        
      ]
    },
    {
      "canonicalForm": "Jayadprada Ramamurthy",
      "list": [
        
      ]
    },
    {
      "canonicalForm": "Vani Ramamurthi",
      "list": [
        
      ]
    },
    {
      "canonicalForm": "Sengottai Hari Bhagavathar",
      "list": [
        
      ]
    },
    {
      "canonicalForm": "T.S.Pattabhirama Pandit",
      "list": [
        
      ]
    },
    {
      "canonicalForm": "G. Ravi Kiran",
      "list": [
        
      ]
    },
    {
      "canonicalForm": "Jayateerth Mevundi",
      "list": [
        
      ]
    },
    {
      "canonicalForm": "A. S. Murali",
      "list": [
        
      ]
    },
    {
      "canonicalForm": "Soujanya Suresh",
      "list": [
        
      ]
    },
    {
      "canonicalForm": "Vijayashree Vittal",
      "list": [
        
      ]
    },
    {
      "canonicalForm": "K. Bharatsundar",
      "list": [
        
      ]
    },
    {
      "canonicalForm": "Navagraha Nayakane",
      "list": [
        
      ]
    },
    {
      "canonicalForm": "Savitha Sreeram",
      "list": [
        
      ]
    },
    {
      "canonicalForm": "Sri Sudarsini",
      "list": [
        
      ]
    },
    {
      "canonicalForm": "M. Raginisri",
      "list": [
        
      ]
    },
    {
      "canonicalForm": "Prema Rangarajan",
      "list": [
        
      ]
    },
    {
      "canonicalForm": "Vikram Raghavan",
      "list": [
        
      ]
    },
    {
      "canonicalForm": "Students of Divyanjali",
      "list": [
        
      ]
    },
    {
      "canonicalForm": "Shiv Subramaniam",
      "list": [
        
      ]
    },
    {
      "canonicalForm": "Lakshmipriya",
      "list": [
        
      ]
    },
    {
      "canonicalForm": "Arjun Sambasivam & K. Narayanan",
      "list": [
        
      ]
    },
    {
      "canonicalForm": "R. Sai Vignesh",
      "list": [
        
      ]
    },
   
    {
      "canonicalForm": "Shivangi Rajesh",
      "list": [
        
      ]
    },
    {
      "canonicalForm": "T. Athulkumar",
      "list": [
        
      ]
    },
    {
      "canonicalForm": "D. Balaji & K Silambarasan",
      "list": [
        
      ]
    },
    {
      "canonicalForm": "T. Visha",
      "list": [
        
      ]
    },
    {
      "canonicalForm": "K. Sai Sudha",
      "list": [
        
      ]
    },
    {
      "canonicalForm": "Lakshmi Ramesh",
      "list": [
        
      ]
    },
    {
      "canonicalForm": "J. Venkatesh & J. Balasubramani",
      "list": [
        
      ]
    },
    {
      "canonicalForm": "Students of Abhinaya Natyalaya",
      "list": [
        
      ]
    },
    {
      "canonicalForm": "N. Thaila Santhoshi",
      "list": [
        
      ]
    },
    {
      "canonicalForm": "Pooja & Supraja",
      "list": [
        
      ]
    },
    {
      "canonicalForm": "Ramnath Venkat Bhagawath",
      "list": [
        
      ]
    },
    {
      "canonicalForm": "K. Subhiksha",
      "list": [
        
      ]
    },
    {
      "canonicalForm": "Sivaranjani Viswanathan",
      "list": [
        
      ]
    },
    
    {
      "canonicalForm": "Tejaswini Narayanan",
      "list": [
        
      ]
    },
    {
      "canonicalForm": "K. Dharini",
      "list": [
        
      ]
    },
    {
      "canonicalForm": "Tanya Saxena",
      "list": [
        
      ]
    },
    {
      "canonicalForm": "Sherthalai Ranganatha Sharma",
      "list": [
        
      ]
    },
    {
      "canonicalForm": "V. AmrithNarayanan",
      "list": [
        
      ]
    },
    {
      "canonicalForm": "Easwaran Bhattathiri",
      "list": [
        
      ]
    },
    {
      "canonicalForm": "Niranjana Srinivasan",
      "list": [
        
      ]
    },
    {
      "canonicalForm": "Sri Gyana Mudra",
      "list": [
        
      ]
    },
    {
      "canonicalForm": "Swetha Balasubramaniam",
      "list": [
        
      ]
    },
    {
      "canonicalForm": "S.S. Sahana",
      "list": [
        
      ]
    },
    {
      "canonicalForm": "Students of Abhyasa Academy",
      "list": [
        
      ]
    },
    {
      "canonicalForm": "V. Krupaalakshmi",
      "list": [
        
      ]
    },
    {
      "canonicalForm": "N.S. Kamakshi",
      "list": [
        
      ]
    },
    {
      "canonicalForm": "Aishwarya Vijayakumar",
      "list": [
        
      ]
    },
    {
      "canonicalForm": "R. Ashwathnarayanan",
      "list": [
        
      ]
    },
    {
      "canonicalForm": "Bhavana Rao",
      "list": [
        
      ]
    },
    {
      "canonicalForm": "Atlanta Sisters",
      "list": [
        
      ]
    },
    {
      "canonicalForm": "S. Srinivasan",
      "list": [
        
      ]
    },
    {
      "canonicalForm": "Subhashri Ramachandran",
      "list": [
        
      ]
    },
    {
      "canonicalForm": "Students of RASA",
      "list": [
        
      ]
    },
    {
      "canonicalForm": "Trivandrum Dr. K. Krishnakumar",
      "list": [
        
      ]
    },
    {
      "canonicalForm": "Shruthi Sankarkumar",
      "list": [
        
      ]
    },
    {
      "canonicalForm": "J.B. Keerthana",
      "list": [
        
      ]
    },
    {
      "canonicalForm": "Swathy Krishnamoorthy",
      "list": [
        
      ]
    },
    {
      "canonicalForm": "R. Rajiv",
      "list": [
        
      ]
    },
    {
      "canonicalForm": "Nandini Sugumaran",
      "list": [
        
      ]
    },
    {
      "canonicalForm": "Amruthavarshini Hariharan",
      "list": [
        
      ]
    },
    {
      "canonicalForm": "Poornashri Srivatsan",
      "list": [
        
      ]
    },
    {
      "canonicalForm": "Gayathri Suryanarayanan",
      "list": [
        
      ]
    },
    {
      "canonicalForm": "G.J.R. Krishnan & Lalgudi Vijayalakshmi",
      "list": [
        
      ]
    },
    {
      "canonicalForm": "Snigdha Nanda",
      "list": [
        
      ]
    },
    {
      "canonicalForm": "Sri Saraswathi Natyalaya",
      "list": [
        
      ]
    },
    {
      "canonicalForm": "S. Varsha",
      "list": [
        
      ]
    },
    {
      "canonicalForm": "R. Mahalakshmi",
      "list": [
        
      ]
    },
    {
      "canonicalForm": "Students of Bharathanatyalaya",
      "list": [
        
      ]
    },
    {
      "canonicalForm": "Bhavana Gowri Penubolu",
      "list": [
        
      ]
    },
    {
      "canonicalForm": "Karthik Suresh",
      "list": [
        
      ]
    },
    {
      "canonicalForm": "Vibha Raju",
      "list": [
        
      ]
    },
    {
      "canonicalForm": "Kavitha Thirumalai",
      "list": [
        
      ]
    },
    {
      "canonicalForm": "Aparna Thiagarajan",
      "list": [
        
      ]
    },
    {
      "canonicalForm": "K. Sathyanarayanan",
      "list": [
        
      ]
    },
    {
      "canonicalForm": "D. B. Ashwin",
      "list": [
        
      ]
    },
    {
      "canonicalForm": "K. Sudarshana Lakshmi",
      "list": [
        
      ]
    },
    {
      "canonicalForm": "Maharajapuram S. Ganesh Viswanathan",
      "list": [
        
      ]
    },
    {
      "canonicalForm": "Sakshi Pujari & Namrata Natarajan",
      "list": [
        
      ]
    }
  ]